{
  "stats": {
    "suites": 1,
    "tests": 1,
    "passes": 1,
    "pending": 0,
    "failures": 0,
    "start": "2024-06-19T12:35:41.041Z",
    "end": "2024-06-19T12:35:46.112Z",
    "duration": 5071,
    "testsRegistered": 1,
    "passPercent": 100,
    "pendingPercent": 0,
    "other": 0,
    "hasOther": false,
    "skipped": 0,
    "hasSkipped": false
  },
  "results": [
    {
      "uuid": "b6bf48c5-4670-4537-b247-f0c84f4115b8",
      "title": "",
      "fullFile": "C:\\AutomationTraining\\codecept-playwright\\features\\basic.feature",
      "file": "\\features\\basic.feature",
      "beforeHooks": [],
      "afterHooks": [],
      "tests": [],
      "suites": [
        {
          "uuid": "44e3a98e-c862-4e81-a025-6a15e847f5ea",
          "title": "Checkout Flow",
          "fullFile": "C:\\AutomationTraining\\codecept-playwright\\features\\basic.feature",
          "file": "\\features\\basic.feature",
          "beforeHooks": [
            {
              "title": "\"before all\" hook: codeceptjs.beforeSuite in \"Checkout Flow\"",
              "fullTitle": "Checkout Flow \"before all\" hook: codeceptjs.beforeSuite in \"Checkout Flow\"",
              "timedOut": false,
              "duration": 695,
              "state": null,
              "speed": null,
              "pass": false,
              "fail": false,
              "pending": false,
              "context": null,
              "code": "scenario.suiteSetup(suite)",
              "err": {},
              "uuid": "78c14984-cf8a-4bc3-8383-b371a63f2370",
              "parentUUID": "44e3a98e-c862-4e81-a025-6a15e847f5ea",
              "isHook": true,
              "skipped": false
            },
            {
              "title": "\"before each\" hook: codeceptjs.before in \"Checkout Flow\"",
              "fullTitle": "Checkout Flow \"before each\" hook: codeceptjs.before in \"Checkout Flow\"",
              "timedOut": false,
              "duration": 773,
              "state": null,
              "speed": null,
              "pass": false,
              "fail": false,
              "pending": false,
              "context": null,
              "code": "scenario.setup(suite)",
              "err": {},
              "uuid": "368bbc45-2320-4f60-afdc-ea1d69a0c7fa",
              "parentUUID": "44e3a98e-c862-4e81-a025-6a15e847f5ea",
              "isHook": true,
              "skipped": false
            }
          ],
          "afterHooks": [
            {
              "title": "\"after all\" hook: codeceptjs.afterSuite in \"Checkout Flow\"",
              "fullTitle": "Checkout Flow \"after all\" hook: codeceptjs.afterSuite in \"Checkout Flow\"",
              "timedOut": false,
              "duration": 0,
              "state": null,
              "speed": null,
              "pass": false,
              "fail": false,
              "pending": false,
              "context": null,
              "code": "scenario.suiteTeardown(suite)",
              "err": {},
              "uuid": "f55d0b8c-e30d-4485-b8c4-dd0efa857aae",
              "parentUUID": "44e3a98e-c862-4e81-a025-6a15e847f5ea",
              "isHook": true,
              "skipped": false
            },
            {
              "title": "\"after each\" hook: codeceptjs.after in \"Checkout Flow\"",
              "fullTitle": "Checkout Flow \"after each\" hook: codeceptjs.after in \"Checkout Flow\"",
              "timedOut": false,
              "duration": 308,
              "state": null,
              "speed": null,
              "pass": false,
              "fail": false,
              "pending": false,
              "context": null,
              "code": "scenario.teardown(suite)",
              "err": {},
              "uuid": "5358ea62-b25f-4425-8f4b-0ad6ea5b5585",
              "parentUUID": "44e3a98e-c862-4e81-a025-6a15e847f5ea",
              "isHook": true,
              "skipped": false
            }
          ],
          "tests": [
            {
              "title": "do something",
              "fullTitle": "Checkout Flow do something",
              "timedOut": false,
              "duration": 3286,
              "state": "passed",
              "speed": "slow",
              "pass": true,
              "fail": false,
              "pending": false,
              "context": null,
              "code": "runSteps(child.scenario.steps)",
              "err": {},
              "uuid": "65d55f0c-3fee-4278-a6bf-740304e5b32f",
              "parentUUID": "44e3a98e-c862-4e81-a025-6a15e847f5ea",
              "isHook": false,
              "skipped": false
            }
          ],
          "suites": [],
          "passes": [
            "65d55f0c-3fee-4278-a6bf-740304e5b32f"
          ],
          "failures": [],
          "pending": [],
          "skipped": [],
          "duration": 3286,
          "root": false,
          "rootEmpty": false,
          "_timeout": 0
        }
      ],
      "passes": [],
      "failures": [],
      "pending": [],
      "skipped": [],
      "duration": 0,
      "root": true,
      "rootEmpty": true,
      "_timeout": 0
    }
  ],
  "meta": {
    "mocha": {
      "version": "10.4.0"
    },
    "mochawesome": {
      "options": {
        "quiet": false,
        "reportFilename": "mochawesome",
        "saveHtml": true,
        "saveJson": true,
        "consoleReporter": "spec",
        "useInlineDiffs": false,
        "code": true
      },
      "version": "7.1.3"
    },
    "marge": {
      "options": {
        "reportDir": "./output",
        "reportTitle": "Test Report",
        "uniqueFilename": true
      },
      "version": "6.2.0"
    }
  }
}